653.0
762.0
663.0
660.0
610.0
2802.0
2162.0
455.0
46.0
1518.0
1374.0
2698.0
2127.0
1825.0
29.0
1509.0
118.0
40.0
107.0
1863.0
40.0
1552.0
57.0
2600.0
2972.0
3727.0
222.0
226.0
1317.0
2937.0
1289.0
2003.0
776.0
384.0
1753.0
765.0
37.0
1156.0
2793.0
682.0
2198.0
701.0
41.0
3214.0
1880.0
19.0
2020.0
2045.0
1041.0
318.0
1502.0
3134.0
1798.0
1723.0
20.0
1811.0
48.0
2515.0
2830.0
1918.0
304.0
2156.0
53.0
741.0
23.0
1256.0
1271.0
1816.0
2502.0
28.0
2689.0
47.0
1769.0
595.0
314.0
1521.0
1.0
1888.0
2544.0
122.0
60.0
1686.0
1094.0
825.0
52.0
1926.0
796.0
1975.0
1231.0
726.0
1248.0
47.0
1893.0
2951.0
1757.0
2527.0
2403.0
2576.0
518.0
44.0
46.0
196.0
924.0
2393.0
2645.0
61.0
2211.0
2135.0
3178.0
67.0
1789.0
50.0
2401.0
1598.0
1653.0
2392.0
31.0
44.0
1030.0
1377.0
1265.0
1271.0
1352.0
44.0
1205.0
58.0
64.0
971.0
1898.0
2322.0
1783.0
2131.0
2057.0
63.0
938.0
1387.0
950.0
1151.0
66.0
869.0
59.0
2705.0
1752.0
51.0
1473.0
2173.0
2010.0
1912.0
2420.0
836.0
2419.0
1163.0
33.0
1705.0
2045.0
58.0
137.0
383.0
67.0
28.0
50.0
2518.0
1515.0
1532.0
24.0
2246.0
41.0
45.0
25.0
47.0
28.0
630.0
69.0
47.0
2243.0
38.0
1865.0
74.0
47.0
33.0
29.0
39.0
28.0
2534.0
1846.0
41.0
10.0
61.0
53.0
28.0
1.0
35.0
85.0
19.0
75.0
10.0
48.0
65.0
49.0
23.0
41.0
42.0
38.0
34.0
39.0
25.0
16.0
47.0
56.0
52.0
57.0
20.0
30.0
56.0
21.0
36.0
1.0
30.0
43.0
47.0
44.0
36.0
37.0
33.0
24.0
62.0
49.0
56.0
23.0
43.0
18.0
28.0
15.0
29.0
47.0
39.0
49.0
19.0
59.0
2.0
40.0
36.0
69.0
29.0
63.0
36.0
45.0
56.0
3.0
37.0
74.0
44.0
19.0
33.0
2.0
62.0
2.0
13.0
39.0
1.0
2.0
41.0
58.0
47.0
46.0
49.0
64.0
218.0
1.0
42.0
77.0
47.0
1.0
25.0
38.0
44.0
2.0
30.0
2.0
37.0
67.0
60.0
23.0
52.0
32.0
1.0
31.0
23.0
21.0
2.0
42.0
96.0
45.0
34.0
20.0
22.0
2.0
15.0
22.0
52.0
35.0
18.0
1.0
54.0
39.0
37.0
1.0
48.0
2.0
37.0
39.0
48.0
18.0
57.0
62.0
47.0
42.0
42.0
38.0
32.0
34.0
76.0
30.0
37.0
45.0
125.0
64.0
68.0
2.0
51.0
41.0
2.0
29.0
38.0
3.0
75.0
41.0
96.0
20.0
31.0
41.0
125.0
39.0
9.0
12.0
37.0
39.0
46.0
35.0
32.0
21.0
59.0
25.0
90.0
42.0
56.0
27.0
33.0
39.0
36.0
36.0
33.0
54.0
36.0
24.0
43.0
18.0
21.0
2.0
9.0
65.0
21.0
33.0
79.0
63.0
54.0
52.0
17.0
73.0
48.0
10.0
42.0
51.0
11.0
30.0
35.0
2.0
78.0
45.0
44.0
22.0
17.0
40.0
49.0
52.0
62.0
58.0
15.0
40.0
53.0
2.0
42.0
39.0
2.0
2.0
59.0
91.0
11.0
22.0
35.0
42.0
56.0
32.0
22.0
35.0
43.0
38.0
2.0
10.0
2.0
60.0
10.0
12.0
2.0
57.0
35.0
35.0
44.0
45.0
30.0
87.0
49.0
2.0
31.0
42.0
24.0
39.0
45.0
67.0
40.0
42.0
36.0
51.0
2.0
2.0
26.0
46.0
51.0
35.0
3.0
41.0
56.0
40.0
56.0
57.0
39.0
1.0
14.0
38.0
52.0
47.0
50.0
44.0
97.0
56.0
1.0
54.0
15.0
46.0
77.0
37.0
14.0
67.0
2.0
54.0
53.0
54.0
39.0
2.0
50.0
20.0
17.0
28.0
20.0
77.0
58.0
54.0
47.0
3.0
44.0
3.0
1.0
432.0
827.0
65.0
655.0
495.0
589.0
794.0
326.0
562.0
405.0
443.0
547.0
507.0
640.0
587.0
649.0
611.0
790.0
372.0
656.0
631.0
561.0
514.0
592.0
409.0
576.0
554.0
538.0
636.0
608.0
657.0
4207.0
47.0
59.0
545.0
35.0
35.0
454.0
42.0
73.0
19.0
27.0
14.0
64.0
38.0
40.0
30.0
74.0
745.0
48.0
13.0
362.0
281.0
328.0
260.0
387.0
354.0
354.0
366.0
1768.0
50.0
24.0
56.0
1.0
38.0
244.0
291.0
287.0
234.0
457.0
421.0
509.0
706.0
769.0
636.0
521.0
687.0
570.0
589.0
421.0
1365.0
42.0
42.0
41.0
54.0
110.0
368.0
602.0
51.0
132.0
412.0
439.0
267.0
326.0
281.0
290.0
217.0
319.0
240.0
555.0
157.0
130.0
231.0
1072.0
28.0
202.0
34.0
225.0
892.0
26.0
37.0
1293.0
67.0
59.0
37.0
39.0
47.0
51.0
286.0
351.0
548.0
264.0
139.0
2392.0
114.0
131.0
33.0
16.0
56.0
686.0
36.0
165.0
19.0
28.0
61.0
110.0
36.0
698.0
74.0
89.0
447.0
278.0
42.0
23.0
247.0
391.0
197.0
298.0
353.0
259.0
208.0
263.0
317.0
375.0
149.0
663.0
148.0
103.0
455.0
118.0
300.0
373.0
688.0
36.0
184.0
407.0
280.0
410.0
280.0
306.0
352.0
436.0
286.0
376.0
474.0
421.0
450.0
566.0
407.0
575.0
475.0
677.0
486.0
628.0
697.0
477.0
433.0
336.0
2304.0
55.0
60.0
549.0
43.0
64.0
927.0
25.0
21.0
44.0
1409.0
935.0
55.0
40.0
22.0
31.0
409.0
460.0
553.0
537.0
654.0
638.0
651.0
658.0
721.0
573.0
653.0
540.0
712.0
673.0
564.0
760.0
663.0
775.0
821.0
741.0
593.0
703.0
672.0
671.0
663.0
518.0
604.0
594.0
510.0
493.0
399.0
536.0
497.0
628.0
615.0
711.0
588.0
687.0
722.0
620.0
820.0
585.0
708.0
647.0
423.0
545.0
484.0
443.0
525.0
597.0
616.0
475.0
530.0
675.0
731.0
654.0
717.0
703.0
719.0
743.0
718.0
718.0
698.0
736.0
894.0
560.0
672.0
713.0
637.0
744.0
647.0
599.0
616.0
772.0
616.0
622.0
656.0
614.0
769.0
846.0
790.0
625.0
703.0
651.0
263.0
131.0
233.0
106.0
90.0
170.0
162.0
94.0
96.0
133.0
172.0
108.0
99.0
179.0
106.0
139.0
123.0
189.0
239.0
313.0
462.0
729.0
639.0
721.0
628.0
776.0
736.0
688.0
623.0
735.0
648.0
654.0
679.0
723.0
609.0
636.0
810.0
582.0
530.0
653.0
1000.0
527.0
728.0
727.0
650.0
618.0
719.0
730.0
564.0
727.0
676.0
674.0
751.0
725.0
683.0
603.0
684.0
632.0
618.0
475.0
374.0
435.0
461.0
584.0
643.0
558.0
648.0
605.0
648.0
632.0
604.0
649.0
591.0
539.0
636.0
693.0
628.0
638.0
665.0
557.0
620.0
606.0
593.0
810.0
617.0
542.0
524.0
720.0
576.0
638.0
474.0
447.0
520.0
472.0
391.0
575.0
499.0
512.0
564.0
714.0
585.0
620.0
783.0
572.0
586.0
581.0
659.0
759.0
615.0
696.0
610.0
673.0
617.0
733.0
611.0
657.0
714.0
657.0
659.0
660.0
700.0
690.0
675.0
707.0
610.0
617.0
751.0
656.0
675.0
642.0
635.0
767.0
690.0
694.0
551.0
747.0
684.0
671.0
655.0
696.0
569.0
762.0
656.0
630.0
755.0
637.0
670.0
661.0
680.0
753.0
650.0
736.0
540.0
736.0
655.0
685.0
749.0
719.0
694.0
692.0
766.0
613.0
695.0
643.0
720.0
720.0
783.0
678.0
671.0
671.0
729.0
651.0
726.0
649.0
669.0
567.0
687.0
732.0
644.0
624.0
737.0
654.0
683.0
667.0
666.0
641.0
682.0
608.0
772.0
815.0
759.0
583.0
554.0
760.0
639.0
671.0
646.0
730.0
716.0
596.0
592.0
698.0
505.0
724.0
786.0
662.0
664.0
665.0
643.0
715.0
549.0
475.0
481.0
434.0
523.0
182.0
501.0
491.0
685.0
669.0
664.0
592.0
672.0
734.0
609.0
839.0
735.0
785.0
591.0
852.0
760.0
635.0
720.0
661.0
738.0
640.0
670.0
687.0
701.0
684.0
660.0
739.0
780.0
746.0
714.0
709.0
712.0
735.0
690.0
756.0
726.0
716.0
686.0
699.0
700.0
792.0
612.0
778.0
822.0
604.0
734.0
681.0
796.0
619.0
749.0
723.0
651.0
724.0
700.0
695.0
706.0
732.0
694.0
723.0
745.0
704.0
656.0
697.0
678.0
662.0
962.0
812.0
892.0
781.0
632.0
718.0
721.0
693.0
702.0
680.0
608.0
771.0
652.0
726.0
646.0
729.0
617.0
801.0
746.0
743.0
614.0
667.0
719.0
721.0
629.0
755.0
709.0
717.0
731.0
740.0
717.0
718.0
664.0
612.0
811.0
719.0
608.0
730.0
541.0
589.0
633.0
856.0
608.0
561.0
633.0
737.0
610.0
767.0
387.0
308.0
479.0
619.0
513.0
420.0
465.0
370.0
463.0
601.0
578.0
732.0
543.0
545.0
389.0
571.0
354.0
400.0
464.0
483.0
507.0
559.0
517.0
566.0
584.0
377.0
335.0
382.0
315.0
354.0
363.0
340.0
479.0
590.0
719.0
679.0
684.0
591.0
709.0
708.0
672.0
670.0
687.0
595.0
636.0
500.0
411.0
546.0
224.0
584.0
528.0
669.0
591.0
696.0
561.0
689.0
750.0
706.0
731.0
652.0
633.0
766.0
651.0
589.0
686.0
770.0
517.0
537.0
644.0
832.0
634.0
690.0
675.0
692.0
655.0
660.0
731.0
647.0
666.0
700.0
561.0
663.0
526.0
452.0
460.0
717.0
718.0
725.0
810.0
555.0
719.0
730.0
598.0
794.0
589.0
712.0
675.0
677.0
557.0
530.0
561.0
532.0
642.0
638.0
723.0
633.0
724.0
608.0
669.0
733.0
624.0
692.0
674.0
689.0
557.0
411.0
469.0
452.0
514.0
713.0
634.0
862.0
661.0
639.0
803.0
635.0
464.0
195.0
236.0
172.0
144.0
153.0
193.0
248.0
233.0
280.0
221.0
668.0
571.0
647.0
643.0
478.0
573.0
718.0
632.0
746.0
543.0
762.0
658.0
798.0
719.0
756.0
719.0
713.0
636.0
744.0
697.0
693.0
657.0
755.0
534.0
679.0
707.0
711.0
711.0
630.0
814.0
650.0
558.0
770.0
732.0
762.0
724.0
672.0
839.0
712.0
743.0
676.0
750.0
609.0
691.0
717.0
717.0
706.0
759.0
603.0
658.0
760.0
740.0
651.0
559.0
688.0
707.0
725.0
795.0
617.0
836.0
655.0
680.0
707.0
648.0
733.0
542.0
730.0
649.0
817.0
728.0
555.0
786.0
659.0
760.0
663.0
691.0
672.0
737.0
707.0
651.0
705.0
733.0
687.0
728.0
601.0
680.0
700.0
720.0
778.0
691.0
697.0
662.0
604.0
812.0
669.0
691.0
735.0
614.0
828.0
691.0
732.0
692.0
679.0
682.0
711.0
678.0
641.0
610.0
716.0
566.0
848.0
638.0
666.0
692.0
729.0
662.0
644.0
642.0
687.0
657.0
745.0
687.0
802.0
468.0
719.0
548.0
612.0
455.0
612.0
674.0
629.0
561.0
733.0
657.0
703.0
693.0
728.0
706.0
695.0
723.0
650.0
636.0
748.0
666.0
753.0
645.0
666.0
754.0
651.0
683.0
637.0
706.0
677.0
669.0
681.0
705.0
651.0
699.0
710.0
658.0
673.0
735.0
632.0
743.0
735.0
732.0
688.0
675.0
729.0
654.0
652.0
775.0
747.0
827.0
624.0
834.0
666.0
729.0
735.0
653.0
705.0
655.0
746.0
673.0
742.0
692.0
735.0
657.0
690.0
750.0
4295.0
55.0
62.0
56.0
34.0
46.0
19.0
60.0
2.0
46.0
455.0
737.0
725.0
725.0
621.0
758.0
702.0
752.0
698.0
711.0
740.0
750.0
694.0
651.0
668.0
689.0
725.0
714.0
645.0
775.0
689.0
724.0
696.0
675.0
745.0
688.0
745.0
564.0
808.0
477.0
730.0
623.0
663.0
695.0
655.0
630.0
817.0
666.0
625.0
767.0
648.0
663.0
603.0
705.0
624.0
869.0
745.0
910.0
629.0
599.0
639.0
628.0
495.0
351.0
533.0
355.0
597.0
264.0
668.0
651.0
698.0
726.0
676.0
724.0
624.0
687.0
620.0
694.0
765.0
715.0
672.0
646.0
643.0
691.0
736.0
590.0
719.0
679.0
731.0
709.0
483.0
297.0
462.0
647.0
805.0
659.0
725.0
747.0
688.0
635.0
687.0
681.0
747.0
737.0
628.0
748.0
686.0
664.0
744.0
677.0
762.0
679.0
681.0
713.0
708.0
937.0
647.0
925.0
971.0
749.0
775.0
683.0
668.0
827.0
625.0
659.0
768.0
772.0
766.0
880.0
800.0
778.0
744.0
698.0
758.0
946.0
880.0
827.0
849.0
911.0
892.0
746.0
774.0
666.0
726.0
760.0
761.0
850.0
710.0
747.0
562.0
733.0
645.0
790.0
753.0
692.0
683.0
755.0
719.0
627.0
767.0
612.0
813.0
713.0
668.0
665.0
710.0
663.0
719.0
765.0
705.0
815.0
730.0
1984.0
43.0
28.0
624.0
796.0
698.0
791.0
730.0
722.0
727.0
630.0
715.0
649.0
657.0
719.0
740.0
705.0
713.0
707.0
736.0
754.0
729.0
704.0
712.0
700.0
767.0
733.0
840.0
688.0
678.0
758.0
665.0
717.0
702.0
653.0
834.0
606.0
736.0
705.0
765.0
777.0
740.0
707.0
774.0
744.0
653.0
740.0
707.0
591.0
779.0
719.0
655.0
678.0
794.0
757.0
817.0
698.0
657.0
728.0
730.0
730.0
759.0
579.0
753.0
723.0
759.0
744.0
732.0
767.0
646.0
783.0
676.0
677.0
827.0
772.0
861.0
755.0
926.0
833.0
776.0
823.0
686.0
721.0
898.0
959.0
719.0
711.0
795.0
704.0
667.0
831.0
576.0
814.0
669.0
724.0
711.0
711.0
709.0
727.0
797.0
708.0
678.0
751.0
681.0
762.0
785.0
772.0
722.0
753.0
698.0
690.0
763.0
693.0
697.0
801.0
786.0
653.0
686.0
727.0
813.0
791.0
669.0
862.0
746.0
723.0
550.0
860.0
660.0
728.0
705.0
705.0
721.0
720.0
797.0
683.0
722.0
676.0
767.0
665.0
655.0
699.0
687.0
704.0
626.0
735.0
705.0
754.0
673.0
716.0
684.0
652.0
775.0
722.0
712.0
625.0
690.0
655.0
615.0
559.0
695.0
678.0
782.0
631.0
711.0
773.0
742.0
662.0
612.0
809.0
685.0
753.0
715.0
681.0
645.0
690.0
656.0
612.0
735.0
658.0
760.0
712.0
698.0
628.0
693.0
631.0
754.0
716.0
655.0
736.0
710.0
629.0
745.0
648.0
719.0
694.0
613.0
813.0
648.0
715.0
665.0
676.0
676.0
647.0
712.0
628.0
732.0
729.0
759.0
688.0
717.0
637.0
731.0
723.0
658.0
732.0
673.0
751.0
695.0
556.0
815.0
722.0
674.0
721.0
546.0
391.0
693.0
692.0
703.0
532.0
737.0
596.0
723.0
516.0
640.0
717.0
549.0
628.0
613.0
713.0
440.0
640.0
496.0
859.0
227.0
578.0
689.0
627.0
575.0
618.0
573.0
604.0
524.0
625.0
486.0
617.0
560.0
607.0
586.0
604.0
544.0
668.0
545.0
610.0
578.0
503.0
520.0
478.0
166.0
438.0
204.0
461.0
239.0
596.0
165.0
454.0
263.0
397.0
330.0
417.0
508.0
531.0
713.0
843.0
616.0
757.0
422.0
640.0
660.0
768.0
624.0
809.0
577.0
719.0
662.0
622.0
597.0
663.0
676.0
681.0
572.0
556.0
650.0
664.0
577.0
613.0
367.0
686.0
682.0
631.0
646.0
655.0
686.0
648.0
748.0
639.0
658.0
711.0
751.0
602.0
820.0
648.0
650.0
812.0
749.0
519.0
663.0
716.0
514.0
675.0
646.0
637.0
682.0
641.0
715.0
653.0
758.0
740.0
507.0
787.0
475.0
529.0
868.0
617.0
752.0
671.0
794.0
709.0
691.0
679.0
719.0
594.0
721.0
721.0
691.0
771.0
629.0
748.0
710.0
718.0
881.0
623.0
645.0
728.0
716.0
652.0
728.0
664.0
672.0
664.0
695.0
632.0
774.0
760.0
735.0
686.0
779.0
724.0
643.0
762.0
695.0
734.0
722.0
688.0
825.0
698.0
732.0
614.0
665.0
910.0
635.0
692.0
776.0
771.0
692.0
779.0
664.0
661.0
710.0
767.0
702.0
663.0
781.0
707.0
684.0
694.0
623.0
733.0
562.0
645.0
541.0
744.0
537.0
694.0
456.0
600.0
839.0
698.0
641.0
752.0
586.0
660.0
657.0
624.0
643.0
641.0
668.0
668.0
565.0
666.0
564.0
513.0
687.0
398.0
576.0
538.0
649.0
643.0
553.0
672.0
496.0
498.0
602.0
831.0
427.0
663.0
693.0
448.0
672.0
546.0
490.0
480.0
794.0
246.0
675.0
667.0
539.0
625.0
540.0
601.0
583.0
456.0
557.0
561.0
648.0
547.0
584.0
603.0
1273.0
191.0
506.0
797.0
679.0
731.0
655.0
876.0
678.0
772.0
671.0
750.0
627.0
731.0
811.0
668.0
672.0
775.0
769.0
675.0
791.0
709.0
756.0
850.0
557.0
811.0
677.0
706.0
698.0
901.0
600.0
706.0
765.0
789.0
769.0
618.0
749.0
730.0
790.0
750.0
668.0
753.0
751.0
699.0
865.0
769.0
750.0
432.0
647.0
604.0
854.0
690.0
828.0
722.0
797.0
654.0
756.0
799.0
624.0
801.0
851.0
668.0
704.0
630.0
762.0
768.0
795.0
720.0
735.0
756.0
716.0
780.0
727.0
721.0
725.0
804.0
816.0
713.0
842.0
684.0
702.0
720.0
650.0
738.0
612.0
796.0
762.0
626.0
693.0
683.0
639.0
726.0
582.0
730.0
723.0
703.0
765.0
606.0
805.0
663.0
703.0
506.0
630.0
561.0
524.0
544.0
524.0
535.0
654.0
634.0
935.0
483.0
716.0
806.0
667.0
746.0
772.0
638.0
720.0
779.0
612.0
706.0
829.0
673.0
757.0
664.0
704.0
633.0
747.0
663.0
784.0
778.0
915.0
461.0
977.0
496.0
676.0
753.0
699.0
679.0
775.0
719.0
733.0
703.0
738.0
776.0
717.0
739.0
640.0
687.0
627.0
721.0
786.0
698.0
640.0
696.0
658.0
733.0
754.0
756.0
630.0
628.0
745.0
773.0
684.0
751.0
649.0
704.0
647.0
671.0
808.0
703.0
848.0
835.0
699.0
707.0
747.0
728.0
711.0
655.0
768.0
755.0
649.0
756.0
834.0
802.0
619.0
675.0
696.0
657.0
772.0
775.0
720.0
629.0
703.0
577.0
769.0
636.0
736.0
691.0
781.0
633.0
722.0
748.0
609.0
747.0
772.0
783.0
703.0
656.0
718.0
620.0
796.0
720.0
726.0
732.0
663.0
698.0
626.0
732.0
686.0
712.0
725.0
734.0
611.0
732.0
651.0
784.0
736.0
704.0
730.0
644.0
746.0
632.0
721.0
845.0
637.0
685.0
697.0
616.0
771.0
707.0
659.0
649.0
707.0
841.0
735.0
758.0
760.0
605.0
735.0
724.0
655.0
397.0
494.0
697.0
747.0
753.0
748.0
626.0
622.0
360.0
455.0
542.0
686.0
840.0
205.0
760.0
744.0
684.0
779.0
666.0
645.0
786.0
710.0
533.0
810.0
647.0
667.0
761.0
658.0
664.0
630.0
824.0
571.0
755.0
635.0
729.0
719.0
703.0
676.0
735.0
791.0
862.0
711.0
646.0
911.0
660.0
741.0
772.0
666.0
631.0
720.0
748.0
719.0
652.0
727.0
688.0
680.0
799.0
707.0
795.0
753.0
774.0
686.0
667.0
774.0
742.0
672.0
629.0
723.0
625.0
635.0
538.0
687.0
719.0
810.0
729.0
716.0
706.0
667.0
718.0
737.0
619.0
703.0
736.0
831.0
784.0
782.0
836.0
1562.0
523.0
637.0
705.0
755.0
509.0
473.0
433.0
483.0
609.0
440.0
649.0
747.0
642.0
561.0
673.0
670.0
566.0
633.0
726.0
406.0
1262.0
47.0
184.0
580.0
501.0
405.0
591.0
409.0
490.0
483.0
638.0
590.0
567.0
568.0
661.0
594.0
653.0
752.0
545.0
752.0
547.0
587.0
699.0
649.0
647.0
582.0
509.0
607.0
404.0
344.0
598.0
723.0
555.0
732.0
729.0
584.0
663.0
592.0
694.0
772.0
717.0
718.0
681.0
750.0
660.0
745.0
582.0
563.0
757.0
678.0
670.0
693.0
776.0
513.0
455.0
650.0
630.0
654.0
634.0
712.0
690.0
642.0
580.0
687.0
564.0
834.0
676.0
643.0
656.0
719.0
509.0
638.0
593.0
623.0
726.0
593.0
643.0
641.0
462.0
623.0
508.0
601.0
651.0
748.0
629.0
753.0
700.0
667.0
579.0
661.0
583.0
739.0
631.0
744.0
509.0
742.0
675.0
802.0
676.0
585.0
613.0
735.0
521.0
635.0
649.0
554.0
348.0
482.0
696.0
681.0
736.0
602.0
733.0
701.0
546.0
685.0
700.0
655.0
733.0
539.0
744.0
814.0
311.0
384.0
293.0
474.0
321.0
382.0
362.0
339.0
969.0
422.0
146.0
250.0
61.0
149.0
272.0
220.0
389.0
292.0
1899.0
21.0
2.0
18.0
570.0
76.0
38.0
2.0
46.0
211.0
864.0
46.0
30.0
33.0
275.0
573.0
178.0
29.0
38.0
435.0
44.0
128.0
127.0
178.0
203.0
184.0
410.0
54.0
302.0
24.0
367.0
563.0
179.0
32.0
227.0
182.0
1955.0
29.0
36.0
25.0
42.0
289.0
38.0
288.0
1059.0
533.0
62.0
43.0
32.0
476.0
508.0
436.0
338.0
408.0
481.0
489.0
596.0
483.0
682.0
719.0
674.0
620.0
668.0
653.0
715.0
655.0
732.0
563.0
401.0
498.0
545.0
465.0
495.0
545.0
714.0
411.0
546.0
525.0
648.0
712.0
812.0
672.0
635.0
594.0
583.0
669.0
813.0
607.0
627.0
704.0
754.0
650.0
636.0
732.0
700.0
554.0
827.0
588.0
559.0
674.0
637.0
643.0
594.0
721.0
584.0
470.0
732.0
711.0
589.0
560.0
563.0
643.0
701.0
499.0
676.0
727.0
497.0
629.0
676.0
559.0
604.0
599.0
762.0
553.0
610.0
625.0
571.0
677.0
551.0
637.0
606.0
668.0
784.0
479.0
638.0
635.0
637.0
700.0
453.0
595.0
412.0
431.0
545.0
514.0
671.0
602.0
738.0
592.0
727.0
659.0
687.0
666.0
601.0
471.0
442.0
414.0
482.0
460.0
678.0
399.0
512.0
573.0
471.0
377.0
440.0
469.0
412.0
514.0
543.0
515.0
469.0
715.0
259.0
522.0
405.0
575.0
489.0
329.0
575.0
479.0
454.0
569.0
530.0
452.0
548.0
479.0
398.0
535.0
606.0
370.0
479.0
627.0
539.0
446.0
342.0
387.0
630.0
424.0
334.0
520.0
480.0
438.0
482.0
522.0
517.0
445.0
414.0
551.0
530.0
650.0
467.0
324.0
519.0
400.0
492.0
642.0
449.0
484.0
779.0
92.0
393.0
432.0
456.0
558.0
512.0
483.0
408.0
428.0
412.0
519.0
522.0
445.0
356.0
461.0
353.0
431.0
425.0
718.0
265.0
389.0
615.0
342.0
485.0
516.0
552.0
613.0
748.0
295.0
639.0
465.0
532.0
458.0
591.0
552.0
521.0
543.0
335.0
596.0
494.0
553.0
565.0
547.0
543.0
628.0
419.0
478.0
624.0
409.0
839.0
153.0
581.0
516.0
594.0
533.0
483.0
609.0
364.0
484.0
541.0
403.0
576.0
581.0
575.0
458.0
604.0
591.0
528.0
583.0
512.0
691.0
550.0
639.0
607.0
602.0
537.0
515.0
605.0
555.0
560.0
558.0
518.0
543.0
496.0
485.0
610.0
517.0
530.0
603.0
444.0
552.0
538.0
630.0
605.0
503.0
550.0
543.0
559.0
558.0
537.0
574.0
536.0
453.0
510.0
359.0
481.0
489.0
321.0
470.0
391.0
452.0
375.0
437.0
398.0
447.0
440.0
376.0
575.0
351.0
425.0
344.0
486.0
375.0
539.0
319.0
564.0
236.0
410.0
480.0
435.0
508.0
466.0
375.0
492.0
431.0
496.0
431.0
352.0
467.0
474.0
479.0
478.0
375.0
522.0
520.0
560.0
501.0
548.0
452.0
458.0
565.0
478.0
435.0
831.0
125.0
362.0
676.0
454.0
404.0
570.0
464.0
435.0
457.0
564.0
501.0
497.0
522.0
414.0
468.0
483.0
447.0
540.0
393.0
461.0
427.0
431.0
474.0
471.0
400.0
517.0
444.0
515.0
631.0
469.0
517.0
492.0
449.0
566.0
532.0
434.0
607.0
518.0
476.0
496.0
499.0
532.0
467.0
543.0
460.0
531.0
657.0
268.0
504.0
595.0
491.0
472.0
707.0
413.0
468.0
984.0
94.0
530.0
468.0
492.0
559.0
451.0
486.0
481.0
427.0
540.0
518.0
468.0
520.0
587.0
508.0
455.0
464.0
571.0
396.0
520.0
434.0
633.0
478.0
533.0
491.0
587.0
549.0
539.0
536.0
496.0
495.0
544.0
474.0
645.0
456.0
448.0
523.0
491.0
386.0
534.0
548.0
568.0
481.0
479.0
400.0
478.0
393.0
512.0
415.0
448.0
455.0
517.0
588.0
443.0
502.0
451.0
507.0
496.0
484.0
443.0
490.0
479.0
477.0
567.0
427.0
557.0
496.0
486.0
521.0
510.0
577.0
577.0
523.0
541.0
489.0
517.0
531.0
455.0
519.0
558.0
566.0
480.0
528.0
549.0
432.0
631.0
599.0
451.0
460.0
484.0
551.0
534.0
509.0
578.0
464.0
546.0
489.0
518.0
394.0
540.0
394.0
418.0
549.0
508.0
488.0
424.0
579.0
545.0
589.0
597.0
917.0
379.0
615.0
602.0
623.0
562.0
601.0
644.0
554.0
696.0
594.0
596.0
634.0
542.0
687.0
599.0
607.0
321.0
1011.0
113.0
864.0
271.0
529.0
1096.0
729.0
19.0
52.0
962.0
597.0
507.0
1346.0
95.0
54.0
770.0
44.0
4251.0
49.0
28.0
2.0
858.0
1768.0
49.0
25.0
1039.0
22.0
29.0
57.0
21.0
181.0
155.0
89.0
29.0
49.0
2265.0
441.0
1190.0
1224.0
135.0
13.0
4287.0
49.0
38.0
341.0
540.0
37.0
43.0
39.0
39.0
702.0
162.0
36.0
47.0
475.0
78.0
39.0
24.0
2860.0
97.0
44.0
47.0
42.0
1056.0
1449.0
49.0
67.0
33.0
45.0
54.0
63.0
19.0
56.0
273.0
51.0
29.0
32.0
2.0
24.0
611.0
67.0
91.0
21.0
305.0
17.0
487.0
455.0
4413.0
27.0
2.0
60.0
2.0
122.0
131.0
22.0
247.0
51.0
5178.0
1524.0
53.0
50.0
14.0
38.0
67.0
21.0
54.0
14.0
587.0
16.0
32.0
51.0
43.0
55.0
42.0
54.0
3586.0
15.0
19.0
52.0
35.0
52.0
72.0
91.0
7.0
15.0
21.0
72.0
33.0
10.0
55.0
44.0
13.0
57.0
59.0
59.0
23.0
56.0
10.0
43.0
38.0
32.0
2.0
80.0
44.0
49.0
48.0
39.0
30.0
63.0
41.0
44.0
19.0
264.0
44.0
52.0
17.0
44.0
56.0
42.0
26.0
58.0
38.0
2.0
43.0
22.0
47.0
41.0
55.0
57.0
38.0
42.0
9.0
34.0
118.0
48.0
51.0
2.0
35.0
47.0
59.0
53.0
475.0
555.0
602.0
579.0
686.0
664.0
824.0
834.0
248.0
231.0
314.0
418.0
542.0
726.0
887.0
649.0
521.0
385.0
399.0
355.0
460.0
316.0
266.0
374.0
351.0
291.0
399.0
487.0
589.0
382.0
764.0
643.0
633.0
719.0
505.0
638.0
634.0
556.0
644.0
639.0
588.0
659.0
587.0
641.0
477.0
619.0
681.0
591.0
544.0
601.0
404.0
194.0
237.0
309.0
241.0
334.0
358.0
487.0
185.0
356.0
427.0
479.0
530.0
560.0
588.0
555.0
657.0
500.0
697.0
570.0
641.0
584.0
520.0
685.0
609.0
504.0
609.0
585.0
644.0
591.0
606.0
496.0
636.0
504.0
639.0
616.0
590.0
652.0
712.0
509.0
672.0
545.0
620.0
528.0
354.0
617.0
304.0
191.0
422.0
636.0
596.0
646.0
603.0
613.0
674.0
571.0
634.0
601.0
554.0
621.0
604.0
584.0
694.0
591.0
549.0
526.0
605.0
887.0
662.0
703.0
600.0
573.0
719.0
634.0
621.0
637.0
534.0
835.0
706.0
600.0
964.0
353.0
398.0
383.0
534.0
571.0
422.0
524.0
538.0
552.0
787.0
661.0
570.0
472.0
418.0
302.0
312.0
323.0
355.0
349.0
356.0
426.0
287.0
437.0
642.0
704.0
687.0
512.0
578.0
571.0
709.0
604.0
603.0
612.0
630.0
557.0
569.0
517.0
693.0
679.0
648.0
679.0
594.0
610.0
649.0
685.0
572.0
525.0
738.0
455.0
615.0
574.0
564.0
562.0
525.0
561.0
515.0
531.0
576.0
438.0
636.0
528.0
594.0
670.0
636.0
620.0
561.0
533.0
534.0
657.0
560.0
578.0
576.0
867.0
646.0
584.0
519.0
593.0
625.0
642.0
673.0
623.0
663.0
498.0
687.0
490.0
770.0
649.0
639.0
604.0
718.0
622.0
605.0
583.0
561.0
622.0
606.0
511.0
582.0
706.0
391.0
687.0
536.0
569.0
348.0
725.0
587.0
726.0
539.0
665.0
615.0
592.0
661.0
701.0
622.0
564.0
520.0
435.0
545.0
436.0
350.0
361.0
409.0
502.0
529.0
534.0
693.0
820.0
523.0
625.0
446.0
619.0
638.0
527.0
647.0
544.0
592.0
552.0
549.0
574.0
521.0
532.0
707.0
441.0
169.0
300.0
117.0
129.0
235.0
239.0
218.0
258.0
1006.0
61.0
65.0
44.0
196.0
640.0
61.0
70.0
72.0
315.0
285.0
36.0
151.0
334.0
361.0
442.0
651.0
723.0
733.0
498.0
578.0
643.0
565.0
628.0
608.0
594.0
803.0
450.0
579.0
534.0
627.0
606.0
579.0
633.0
499.0
696.0
695.0
474.0
737.0
632.0
585.0
643.0
593.0
581.0
527.0
638.0
513.0
599.0
869.0
263.0
651.0
621.0
549.0
645.0
782.0
635.0
723.0
682.0
534.0
681.0
633.0
662.0
601.0
723.0
592.0
502.0
656.0
700.0
635.0
702.0
577.0
725.0
648.0
638.0
635.0
764.0
640.0
698.0
664.0
615.0
858.0
671.0
682.0
627.0
613.0
720.0
798.0
583.0
660.0
511.0
636.0
613.0
639.0
612.0
663.0
721.0
591.0
784.0
628.0
708.0
687.0
697.0
563.0
729.0
636.0
897.0
535.0
947.0
535.0
706.0
706.0
671.0
661.0
786.0
722.0
606.0
560.0
637.0
568.0
630.0
602.0
572.0
608.0
542.0
421.0
838.0
18.0
589.0
702.0
605.0
768.0
497.0
667.0
658.0
538.0
737.0
774.0
526.0
459.0
594.0
466.0
579.0
549.0
614.0
627.0
664.0
699.0
717.0
591.0
768.0
691.0
583.0
566.0
550.0
493.0
251.0
234.0
670.0
579.0
591.0
525.0
544.0
632.0
592.0
527.0
610.0
670.0
714.0
666.0
566.0
756.0
558.0
679.0
581.0
778.0
704.0
683.0
655.0
747.0
814.0
828.0
665.0
774.0
614.0
658.0
735.0
663.0
740.0
634.0
751.0
703.0
582.0
748.0
631.0
828.0
670.0
829.0
530.0
554.0
712.0
635.0
718.0
615.0
769.0
662.0
895.0
443.0
595.0
792.0
531.0
697.0
795.0
658.0
676.0
719.0
638.0
645.0
666.0
798.0
732.0
599.0
596.0
635.0
664.0
682.0
643.0
630.0
790.0
587.0
605.0
717.0
703.0
559.0
764.0
645.0
725.0
663.0
781.0
720.0
600.0
743.0
605.0
756.0
668.0
660.0
685.0
612.0
744.0
772.0
622.0
758.0
718.0
610.0
585.0
644.0
585.0
759.0
558.0
681.0
650.0
596.0
673.0
403.0
401.0
409.0
566.0
633.0
557.0
581.0
606.0
632.0
639.0
578.0
611.0
591.0
530.0
545.0
490.0
601.0
616.0
537.0
597.0
499.0
719.0
610.0
629.0
562.0
689.0
627.0
434.0
598.0
637.0
572.0
616.0
585.0
760.0
493.0
693.0
424.0
394.0
440.0
450.0
623.0
536.0
511.0
744.0
576.0
673.0
593.0
530.0
724.0
616.0
537.0
561.0
673.0
590.0
604.0
643.0
615.0
666.0
598.0
541.0
576.0
675.0
604.0
663.0
595.0
542.0
589.0
679.0
567.0
402.0
487.0
680.0
565.0
548.0
624.0
674.0
601.0
622.0
572.0
567.0
641.0
558.0
706.0
573.0
668.0
607.0
666.0
600.0
600.0
670.0
594.0
581.0
600.0
606.0
656.0
639.0
686.0
514.0
735.0
625.0
588.0
636.0
631.0
559.0
660.0
812.0
708.0
679.0
671.0
706.0
648.0
636.0
709.0
520.0
650.0
665.0
616.0
660.0
620.0
760.0
595.0
664.0
892.0
270.0
691.0
602.0
659.0
591.0
613.0
465.0
722.0
673.0
561.0
681.0
658.0
639.0
639.0
565.0
679.0
677.0
505.0
454.0
543.0
503.0
644.0
636.0
679.0
579.0
619.0
517.0
508.0
531.0
595.0
647.0
579.0
512.0
557.0
636.0
539.0
620.0
508.0
683.0
742.0
529.0
556.0
435.0
493.0
492.0
657.0
583.0
643.0
557.0
536.0
565.0
484.0
595.0
753.0
515.0
878.0
323.0
732.0
4.0
788.0
627.0
563.0
760.0
430.0
532.0
581.0
693.0
581.0
737.0
545.0
725.0
704.0
759.0
573.0
688.0
650.0
589.0
685.0
690.0
654.0
701.0
557.0
771.0
464.0
465.0
641.0
661.0
638.0
740.0
769.0
453.0
691.0
637.0
636.0
762.0
644.0
575.0
773.0
606.0
759.0
634.0
720.0
647.0
702.0
645.0
639.0
659.0
464.0
354.0
444.0
366.0
416.0
501.0
606.0
481.0
388.0
485.0
536.0
593.0
605.0
621.0
669.0
535.0
721.0
716.0
728.0
636.0
590.0
720.0
693.0
712.0
724.0
674.0
632.0
906.0
434.0
571.0
748.0
695.0
631.0
574.0
748.0
676.0
656.0
511.0
723.0
631.0
744.0
600.0
660.0
691.0
553.0
699.0
710.0
735.0
715.0
530.0
935.0
955.0
577.0
515.0
691.0
639.0
723.0
551.0
672.0
648.0
604.0
669.0
665.0
1956.0
371.0
587.0
441.0
669.0
605.0
561.0
395.0
348.0
216.0
333.0
324.0
360.0
249.0
388.0
401.0
523.0
338.0
519.0
493.0
462.0
537.0
611.0
612.0
594.0
689.0
653.0
785.0
669.0
717.0
680.0
613.0
635.0
624.0
877.0
755.0
625.0
723.0
718.0
627.0
729.0
674.0
584.0
500.0
528.0
445.0
710.0
661.0
717.0
634.0
1257.0
83.0
733.0
640.0
748.0
528.0
441.0
518.0
685.0
487.0
508.0
559.0
630.0
734.0
622.0
514.0
457.0
466.0
448.0
606.0
629.0
757.0
669.0
618.0
659.0
742.0
669.0
626.0
760.0
705.0
728.0
623.0
698.0
613.0
661.0
634.0
616.0
719.0
335.0
412.0
350.0
204.0
791.0
81.0
383.0
209.0
291.0
557.0
657.0
796.0
43.0
156.0
400.0
3786.0
33.0
12.0
23.0
56.0
39.0
168.0
31.0
424.0
37.0
34.0
42.0
20.0
56.0
303.0
428.0
524.0
432.0
534.0
594.0
702.0
737.0
813.0
645.0
600.0
658.0
670.0
728.0
710.0
692.0
631.0
711.0
655.0
871.0
861.0
789.0
776.0
722.0
575.0
656.0
12447.0
46.0
67.0
26.0
140.0
964.0
53.0
44.0
28.0
39.0
793.0
57.0
38.0
52.0
53.0
1.0
45.0
67.0
51.0
16.0
63.0
34.0
40.0
165.0
673.0
797.0
571.0
597.0
780.0
714.0
685.0
672.0
716.0
697.0
630.0
751.0
727.0
671.0
574.0
820.0
664.0
614.0
639.0
834.0
648.0
793.0
657.0
778.0
549.0
872.0
698.0
705.0
709.0
661.0
654.0
725.0
656.0
622.0
717.0
601.0
863.0
611.0
359.0
447.0
433.0
456.0
612.0
559.0
707.0
533.0
424.0
571.0
690.0
665.0
940.0
411.0
721.0
586.0
670.0
694.0
700.0
650.0
726.0
717.0
527.0
689.0
625.0
720.0
592.0
749.0
671.0
646.0
617.0
739.0
741.0
620.0
801.0
723.0
767.0
631.0
635.0
642.0
736.0
675.0
719.0
771.0
523.0
658.0
658.0
740.0
730.0
648.0
789.0
677.0
711.0
657.0
647.0
664.0
742.0
646.0
615.0
420.0
488.0
488.0
673.0
688.0
589.0
590.0
592.0
728.0
654.0
751.0
655.0
703.0
747.0
609.0
730.0
740.0
729.0
621.0
822.0
722.0
696.0
634.0
710.0
718.0
672.0
432.0
463.0
737.0
749.0
677.0
646.0
723.0
705.0
634.0
752.0
629.0
817.0
729.0
758.0
598.0
712.0
644.0
761.0
644.0
736.0
624.0
740.0
750.0
638.0
629.0
695.0
722.0
801.0
741.0
652.0
708.0
735.0
637.0
608.0
741.0
720.0
606.0
604.0
493.0
470.0
522.0
551.0
609.0
727.0
624.0
745.0
651.0
754.0
635.0
730.0
729.0
580.0
721.0
629.0
658.0
661.0
659.0
729.0
737.0
696.0
609.0
482.0
603.0
705.0
753.0
658.0
477.0
369.0
526.0
697.0
810.0
656.0
788.0
676.0
718.0
551.0
789.0
685.0
725.0
676.0
665.0
778.0
647.0
702.0
668.0
723.0
646.0
636.0
789.0
723.0
671.0
772.0
730.0
635.0
748.0
727.0
783.0
815.0
460.0
689.0
722.0
621.0
748.0
657.0
418.0
420.0
568.0
533.0
497.0
457.0
449.0
431.0
461.0
422.0
446.0
335.0
417.0
614.0
203.0
628.0
494.0
431.0
394.0
373.0
396.0
439.0
669.0
248.0
352.0
498.0
428.0
439.0
423.0
392.0
235.0
174.0
245.0
442.0
453.0
448.0
399.0
403.0
451.0
476.0
432.0
407.0
427.0
524.0
368.0
376.0
298.0
241.0
395.0
361.0
426.0
495.0
349.0
473.0
462.0
567.0
551.0
411.0
450.0
412.0
389.0
380.0
258.0
499.0
565.0
477.0
598.0
531.0
876.0
805.0
677.0
688.0
725.0
624.0
523.0
737.0
599.0
555.0
517.0
591.0
609.0
408.0
319.0
399.0
367.0
424.0
604.0
593.0
597.0
605.0
657.0
572.0
653.0
710.0
567.0
714.0
702.0
584.0
476.0
484.0
430.0
500.0
738.0
486.0
603.0
628.0
715.0
1169.0
